==============================================================================
Sensor configuration:
  Number of sensors: 4
  Number of modes: 4
------------------------------------------------------------------------------
  Modes selection:
    1 2 3 4
------------------------------------------------------------------------------
  Omega^2:
    1.00000e+00
    3.92739e+01
    3.07914e+02
    1.18240e+03
------------------------------------------------------------------------------
  Lambda:
    1.00000e-01
    1.00000e-01
    1.00000e-01
    1.00000e-01
------------------------------------------------------------------------------
  Frequency:
    min = 1.00000e-03
    max = 4.60000e+02
    samples = 100000
==============================================================================
System parameters:
  Number of modes: 12
  L: 1.00000e+00
  E: 7.00000e+10
  Volumetric density: 2.81000e+03
  b: 5.00000e-03
  h: 5.00000e-03
  A: 2.50000e-05
  I: 5.20833e-11
  Omega_1: 2.53295e+01
  Beta_1: 1.87510e+00
==============================================================================
Loads:
  Distributed load: 
------------------------------------------------------------------------------
  Point loads:
    At x = 1.00000e+00, f = 1.00000e+00
==============================================================================
Flags:
  Optimize: no
Optimal point found at set no. 167
    Obj. function = 1.79296e-03
    Obj. function mean = 9.29193e-03
    Obj. function stddev = 1.03296e-02
Optimal point found at set no. 167
    Obj. function = 1.79296e-03
    Obj. function mean = 9.29193e-03
    Obj. function stddev = 1.03296e-02
Optimal point found at set no. 167
    Obj. function = 1.79296e-03
    Obj. function mean = 9.29193e-03
    Obj. function stddev = 1.03296e-02
Optimal point found at set no. 167
    Obj. function = 1.79296e-03
    Obj. function mean = 9.29193e-03
    Obj. function stddev = 1.03296e-02
Optimal point found at set no. 167
    Obj. function = 1.79296e-03
    Obj. function mean = 9.29193e-03
    Obj. function stddev = 1.03296e-02
