Phi 1:
c = 1.000000000000e+00
c = 0.000000000000e+00
c = 0.000000000000e+00
c = 0.000000000000e+00
c = 0.000000000000e+00
c = 0.000000000000e+00
c = 0.000000000000e+00
c = 0.000000000000e+00
c = 0.000000000000e+00
c = 0.000000000000e+00
c = 0.000000000000e+00
c = 0.000000000000e+00
beta = 1.875104068712e+00

Phi 2:
c = 1.000000000000e+00
c = 1.000000000000e+00
c = 0.000000000000e+00
c = 0.000000000000e+00
c = 0.000000000000e+00
c = 0.000000000000e+00
c = 0.000000000000e+00
c = 0.000000000000e+00
c = 0.000000000000e+00
c = 0.000000000000e+00
c = 0.000000000000e+00
c = 0.000000000000e+00
beta = 4.694091132974e+00

Phi 3:
c = 1.000000000000e+00
c = 1.000000000000e+00
c = 1.000000000000e+00
c = 0.000000000000e+00
c = 0.000000000000e+00
c = 0.000000000000e+00
c = 0.000000000000e+00
c = 0.000000000000e+00
c = 0.000000000000e+00
c = 0.000000000000e+00
c = 0.000000000000e+00
c = 0.000000000000e+00
beta = 7.854757438239e+00

Phi 4:
c = 1.000000000000e+00
c = 1.000000000000e+00
c = 1.000000000000e+00
c = 1.000000000000e+00
c = 0.000000000000e+00
c = 0.000000000000e+00
c = 0.000000000000e+00
c = 0.000000000000e+00
c = 0.000000000000e+00
c = 0.000000000000e+00
c = 0.000000000000e+00
c = 0.000000000000e+00
beta = 1.099554073444e+01

Phi 5:
c = 1.000000000000e+00
c = 1.000000000000e+00
c = 1.000000000000e+00
c = 1.000000000000e+00
c = 1.000000000000e+00
c = 0.000000000000e+00
c = 0.000000000000e+00
c = 0.000000000000e+00
c = 0.000000000000e+00
c = 0.000000000000e+00
c = 0.000000000000e+00
c = 0.000000000000e+00
beta = 1.413716839095e+01

Phi 6:
c = 1.000000000000e+00
c = 1.000000000000e+00
c = 1.000000000000e+00
c = 1.000000000000e+00
c = 1.000000000000e+00
c = 1.000000000000e+00
c = 0.000000000000e+00
c = 0.000000000000e+00
c = 0.000000000000e+00
c = 0.000000000000e+00
c = 0.000000000000e+00
c = 0.000000000000e+00
beta = 1.727875953209e+01

Phi 7:
c = 1.000000000000e+00
c = 1.000000000000e+00
c = 1.000000000000e+00
c = 1.000000000000e+00
c = 1.000000000000e+00
c = 1.000000000000e+00
c = 1.000000000000e+00
c = 0.000000000000e+00
c = 0.000000000000e+00
c = 0.000000000000e+00
c = 0.000000000000e+00
c = 0.000000000000e+00
beta = 2.042035225130e+01

Phi 8:
c = 1.000000000000e+00
c = 1.000000000000e+00
c = 1.000000000000e+00
c = 1.000000000000e+00
c = 1.000000000000e+00
c = 1.000000000000e+00
c = 1.000000000000e+00
c = 1.000000000000e+00
c = 0.000000000000e+00
c = 0.000000000000e+00
c = 0.000000000000e+00
c = 0.000000000000e+00
beta = 2.356194490192e+01

Phi 9:
c = 1.000000000000e+00
c = 1.000000000000e+00
c = 1.000000000000e+00
c = 1.000000000000e+00
c = 1.000000000000e+00
c = 1.000000000000e+00
c = 1.000000000000e+00
c = 1.000000000000e+00
c = 1.000000000000e+00
c = 0.000000000000e+00
c = 0.000000000000e+00
c = 0.000000000000e+00
beta = 2.670353755512e+01

Phi 10:
c = 1.000000000000e+00
c = 1.000000000000e+00
c = 1.000000000000e+00
c = 1.000000000000e+00
c = 1.000000000000e+00
c = 1.000000000000e+00
c = 1.000000000000e+00
c = 1.000000000000e+00
c = 1.000000000000e+00
c = 1.000000000000e+00
c = 0.000000000000e+00
c = 0.000000000000e+00
beta = 2.984513020910e+01

Phi 11:
c = 1.000000000000e+00
c = 1.000000000000e+00
c = 1.000000000000e+00
c = 1.000000000000e+00
c = 1.000000000000e+00
c = 1.000000000000e+00
c = 1.000000000000e+00
c = 1.000000000000e+00
c = 1.000000000000e+00
c = 1.000000000000e+00
c = 1.000000000000e+00
c = 0.000000000000e+00
beta = 3.298672286269e+01

Phi 12:
c = 1.000000000000e+00
c = 1.000000000000e+00
c = 1.000000000000e+00
c = 1.000000000000e+00
c = 1.000000000000e+00
c = 1.000000000000e+00
c = 1.000000000000e+00
c = 1.000000000000e+00
c = 1.000000000000e+00
c = 1.000000000000e+00
c = 1.000000000000e+00
c = 1.000000000000e+00
beta = 3.612831551628e+01

